module gitlab.com/gomidi/midicat

go 1.14

require (
	github.com/pelletier/go-toml v1.9.1 // indirect
	gitlab.com/gomidi/midi v1.23.4
	gitlab.com/gomidi/rtmididrv v0.13.0
	gitlab.com/metakeule/config v1.21.0
	golang.org/x/sys v0.0.0-20210514084401-e8d321eab015 // indirect
)
